Procesador/Contador9/Contador9.vcd
$date
  Fri Apr 17 11:46:18 2020
$end
$version
  GHDL v0
$end
$timescale
  1 fs
$end
$var reg 1 ! load $end
$var reg 1 " inc $end
$var reg 1 # clk $end
$var reg 9 $ entrada[8:0] $end
$var reg 9 % salida[8:0] $end
$var reg 1 & clock_on $end
$scope module uut $end
$var reg 1 ' load $end
$var reg 1 ( inc $end
$var reg 1 ) clk $end
$var reg 9 * entrada[8:0] $end
$var reg 9 + salida[8:0] $end
$upscope $end
$enddefinitions $end
#0
0!
0"
0#
b000000000 $
b000000000 %
1&
0'
0(
0)
b000000000 *
b000000000 +
#25000000
1#
1)
#50000000
0#
0)
#75000000
1#
1)
#100000000
1"
0#
1(
0)
#125000000
1#
1)
#150000000
0#
b000000001 %
0)
b000000001 +
#175000000
1#
1)
#200000000
0#
b000000010 %
0)
b000000010 +
#225000000
1#
1)
#250000000
0#
b000000011 %
0)
b000000011 +
#275000000
1#
1)
#300000000
0#
b000000100 %
0)
b000000100 +
#325000000
1#
1)
#350000000
0#
b000000101 %
0)
b000000101 +
#375000000
1#
1)
#400000000
1!
0"
0#
b010101010 $
b000000110 %
1'
0(
0)
b010101010 *
b000000110 +
#425000000
1#
1)
#450000000
0#
b010101010 %
0)
b010101010 +
