Procesador/CPU/CPU.vcd
$date
  Thu Jun 04 14:58:03 2020
$end
$version
  GHDL v0
$end
$timescale
  1 fs
$end
$var reg 1 ! clk $end
$var reg 16 " entrada[15:0] $end
$var reg 16 # salida[15:0] $end
$var reg 1 $ clock_on $end
$scope module uut $end
$var reg 1 % clk $end
$var reg 16 & entrada[15:0] $end
$var reg 16 ' salida[15:0] $end
$var reg 1 ( lpc $end
$var reg 1 ) incpc $end
$var reg 1 * lpar $end
$var reg 1 + lir $end
$var reg 1 , lpbr $end
$var reg 1 - lmar $end
$var reg 1 . lmbr $end
$var reg 1 / wr $end
$var reg 1 0 bmbr $end
$var reg 1 1 iom $end
$var reg 1 2 lr1 $end
$var reg 1 3 lr2 $end
$var reg 1 4 lr3 $end
$var reg 1 5 lrf $end
$var reg 1 6 jump $end
$var reg 2 7 mmbr[1:0] $end
$var reg 2 8 muxa[1:0] $end
$var reg 2 9 muxb[1:0] $end
$var reg 3 : cond[2:0] $end
$var reg 3 ; flags[2:0] $end
$var reg 4 < oper[3:0] $end
$var reg 9 = salidapc[8:0] $end
$var reg 9 > entradarom[8:0] $end
$var reg 9 ? entradaram[8:0] $end
$var reg 12 @ salidapbr[11:0] $end
$var reg 12 A salidair[11:0] $end
$var reg 12 B salidarom[11:0] $end
$var reg 16 C eram[15:0] $end
$var reg 16 D sram[15:0] $end
$var reg 16 E salidape[15:0] $end
$var reg 16 F senalesctrl[15:0] $end
$var reg 16 G salidaalu[15:0] $end
$var reg 16 H salidamm[15:0] $end
$var reg 16 I salidambr[15:0] $end
$var reg 16 J salidar1[15:0] $end
$var reg 16 K salidar2[15:0] $end
$var reg 16 L salidar3[15:0] $end
$var reg 16 M salidama[15:0] $end
$var reg 16 N salidamb[15:0] $end
$var reg 16 O sirspbr[15:0] $end
$scope module pc $end
$var reg 1 P load $end
$var reg 1 Q inc $end
$var reg 1 R clk $end
$var reg 9 S entrada[8:0] $end
$var reg 9 T salida[8:0] $end
$upscope $end
$scope module par $end
$var reg 1 U load $end
$var reg 1 V clk $end
$var reg 9 W entrada[8:0] $end
$var reg 9 X salida[8:0] $end
$upscope $end
$scope module ir $end
$var reg 1 Y load $end
$var reg 1 Z clk $end
$var reg 12 [ entrada[11:0] $end
$var reg 12 \ salida[11:0] $end
$upscope $end
$scope module pbr $end
$var reg 1 ] load $end
$var reg 1 ^ clk $end
$var reg 12 _ entrada[11:0] $end
$var reg 12 ` salida[11:0] $end
$upscope $end
$scope module romp $end
$var reg 9 a a[8:0] $end
$var reg 12 b d[11:0] $end
$upscope $end
$scope module uc $end
$var reg 12 c ir[11:0] $end
$var reg 16 d sencontrol[15:0] $end
$var reg 1 e clk $end
$var integer 32 f lindir $end
$var reg 3 g contador[2:0] $end
$var reg 11 h direccion[10:0] $end
$upscope $end
$scope module mar $end
$var reg 1 i load $end
$var reg 1 j clk $end
$var reg 9 k entrada[8:0] $end
$var reg 9 l salida[8:0] $end
$upscope $end
$scope module ramd $end
$var reg 9 m direccion[8:0] $end
$var reg 16 n datose[15:0] $end
$var reg 16 o datoss[15:0] $end
$var reg 1 p rw $end
$var reg 1 q iom $end
$comment contador is not handled $end
$var integer 32 r lindir $end
$upscope $end
$scope module pe $end
$var reg 16 s datos[15:0] $end
$var reg 9 t direccion[8:0] $end
$var reg 1 u iom $end
$var reg 1 v wr $end
$var reg 1 w clk $end
$var reg 16 x entrada[15:0] $end
$upscope $end
$scope module ps $end
$var reg 16 y datos[15:0] $end
$var reg 9 z direccion[8:0] $end
$var reg 1 { iom $end
$var reg 1 | wr $end
$var reg 1 } clk $end
$var reg 16 !" salida[15:0] $end
$upscope $end
$scope module mm $end
$var reg 16 "" entrada1[15:0] $end
$var reg 16 #" entrada2[15:0] $end
$var reg 16 $" entrada3[15:0] $end
$var reg 16 %" entrada4[15:0] $end
$var reg 16 &" salida[15:0] $end
$var reg 2 '" selector[1:0] $end
$upscope $end
$scope module mbr $end
$var reg 1 (" load $end
$var reg 1 )" clk $end
$var reg 16 *" entrada[15:0] $end
$var reg 16 +" salida[15:0] $end
$upscope $end
$scope module r1 $end
$var reg 1 ," load $end
$var reg 1 -" clk $end
$var reg 16 ." entrada[15:0] $end
$var reg 16 /" salida[15:0] $end
$upscope $end
$scope module r2 $end
$var reg 1 0" load $end
$var reg 1 1" clk $end
$var reg 16 2" entrada[15:0] $end
$var reg 16 3" salida[15:0] $end
$upscope $end
$scope module r3 $end
$var reg 1 4" load $end
$var reg 1 5" clk $end
$var reg 16 6" entrada[15:0] $end
$var reg 16 7" salida[15:0] $end
$upscope $end
$scope module ma $end
$var reg 16 8" entrada1[15:0] $end
$var reg 16 9" entrada2[15:0] $end
$var reg 16 :" entrada3[15:0] $end
$var reg 16 ;" entrada4[15:0] $end
$var reg 16 <" salida[15:0] $end
$var reg 2 =" selector[1:0] $end
$upscope $end
$scope module mb $end
$var reg 16 >" entrada1[15:0] $end
$var reg 16 ?" entrada2[15:0] $end
$var reg 16 @" entrada3[15:0] $end
$var reg 16 A" entrada4[15:0] $end
$var reg 16 B" salida[15:0] $end
$var reg 2 C" selector[1:0] $end
$upscope $end
$scope module ula $end
$var reg 16 D" a[15:0] $end
$var reg 16 E" b[15:0] $end
$var reg 16 F" r[15:0] $end
$var reg 4 G" oper[3:0] $end
$var reg 3 H" c[2:0] $end
$var reg 32 I" z[31:0] $end
$var reg 3 J" flags[2:0] $end
$upscope $end
$scope module rf $end
$var reg 1 K" load $end
$var reg 1 L" clk $end
$var reg 3 M" entrada[2:0] $end
$var reg 3 N" salida[2:0] $end
$upscope $end
$upscope $end
$enddefinitions $end
#0
0!
b0000000000000000 "
b0000000000000000 #
1$
0%
b0000000000000000 &
b0000000000000000 '
0(
0)
1*
0+
0,
0-
0.
0/
00
01
02
03
04
05
06
b00 7
b00 8
b00 9
b100 :
b000 ;
b0000 <
b000000000 =
b000000000 >
b000000000 ?
b000000000000 @
b000000000000 A
b101111010000 B
bZZZZZZZZZZZZZZZZ C
b0000000000000010 D
b0000000000000000 E
b0100000000000000 F
b0000000000000000 G
b0000000000000010 H
b0000000000000000 I
b0000000000000000 J
b0000000000000000 K
b0000000000000000 L
b0000000000000000 M
b0000000000000000 N
b0000000000000000 O
0P
0Q
0R
b000000000 S
b000000000 T
1U
0V
b000000000 W
b000000000 X
0Y
0Z
b000000000000 [
b000000000000 \
0]
0^
b101111010000 _
b000000000000 `
b000000000 a
b101111010000 b
b000000000000 c
b0100000000000000 d
0e
b0 f
b000 g
b00000000000 h
0i
0j
b111010000 k
b000000000 l
b000000000 m
bZZZZZZZZZZZZZZZZ n
b0000000000000010 o
0p
0q
b0 r
b0000000000000000 s
b000000000 t
0u
0v
0w
b0000000000000000 x
bZZZZZZZZZZZZZZZZ y
b000000000 z
0{
0|
0}
b0000000000000000 !"
b0000000000000010 ""
b0000000000000000 #"
b0000000000000000 $"
b0000000000000000 %"
b0000000000000010 &"
b00 '"
0("
0)"
b0000000000000010 *"
b0000000000000000 +"
0,"
0-"
b0000000000000000 ."
b0000000000000000 /"
00"
01"
b0000000000000000 2"
b0000000000000000 3"
04"
05"
b0000000000000000 6"
b0000000000000000 7"
b0000000000000000 8"
b0000000000000000 9"
b0000000000000000 :"
b0000000000000000 ;"
b0000000000000000 <"
b00 ="
b0000000000000000 >"
b0000000000000000 ?"
b0000000000000000 @"
b0000000000000000 A"
b0000000000000000 B"
b00 C"
b0000000000000000 D"
b0000000000000000 E"
b0000000000000000 F"
b0000 G"
b100 H"
b00000000000000000000000000000000 I"
b100 J"
0K"
0L"
b100 M"
b000 N"
#25000000
1!
1%
1)
0*
1,
b0010100000000000 F
1Q
1R
0U
1V
1Z
1]
1^
b0010100000000000 d
1e
b1 f
b001 g
b00000000001 h
1j
1w
1}
1)"
1-"
11"
15"
1L"
#50000000
0!
0%
0R
0V
0Z
0^
0e
0j
0w
0}
0)"
0-"
01"
05"
0L"
#75000000
1!
1%
0)
1+
0,
b000000001 =
b101111010000 @
b0000010000000000 F
b0000101111010000 O
0Q
1R
b111010000 S
b000000001 T
1V
b000000001 W
1Y
1Z
b101111010000 [
0]
1^
b101111010000 `
b0000010000000000 d
1e
b10 f
b010 g
b00000000010 h
1j
1w
1}
b0000101111010000 #"
1)"
1-"
11"
15"
1L"
#100000000
0!
0%
0R
0V
0Z
0^
0e
0j
0w
0}
0)"
0-"
01"
05"
0L"
#125000000
1!
1%
1*
0+
b01 8
b1011 <
b101111010000 A
b0100000000000000 F
1R
1U
1V
0Y
1Z
b101111010000 \
1^
b101111010000 c
b0100000000000000 d
1e
b10111101011 f
b011 g
b10111101011 h
1j
1w
1}
1)"
1-"
11"
15"
b01 ="
b1011 G"
1L"
#150000000
0!
0%
0R
0V
0Z
0^
0e
0j
0w
0}
0)"
0-"
01"
05"
0L"
#175000000
1!
1%
1)
0*
1,
b000000001 >
b000000000000 B
b0010100000000000 F
1Q
1R
0U
1V
b000000001 X
1Z
1]
1^
b000000000000 _
b000000001 a
b000000000000 b
b0010100000000000 d
1e
b10111101100 f
b100 g
b10111101100 h
1j
b000000000 k
1w
1}
1)"
1-"
11"
15"
1L"
#200000000
0!
0%
0R
0V
0Z
0^
0e
0j
0w
0}
0)"
0-"
01"
05"
0L"
#225000000
1!
1%
0)
0,
1.
b01 7
b000000010 =
b000000000000 @
b0000000100010000 F
b0000000000000000 H
b0000000000000000 O
0Q
1R
b000000000 S
b000000010 T
1V
b000000010 W
1Z
b000000000000 [
0]
1^
b000000000000 `
b0000000100010000 d
1e
b10111101101 f
b101 g
b10111101101 h
1j
1w
1}
b0000000000000000 #"
b0000000000000000 &"
b01 '"
1("
1)"
b0000000000000000 *"
1-"
11"
15"
1L"
#250000000
0!
0%
0R
0V
0Z
0^
0e
0j
0w
0}
0)"
0-"
01"
05"
0L"
#275000000
1!
1%
0.
12
b00 7
b0000000000001000 F
b0000000000000010 H
1R
1V
1Z
1^
b0000000000001000 d
1e
b10111101110 f
b110 g
b10111101110 h
1j
1w
1}
b0000000000000010 &"
b00 '"
0("
1)"
b0000000000000010 *"
1,"
1-"
11"
15"
1L"
#300000000
0!
0%
0R
0V
0Z
0^
0e
0j
0w
0}
0)"
0-"
01"
05"
0L"
#325000000
1!
1%
02
b0000000000000000 F
1R
1V
1Z
1^
b0000000000000000 d
1e
b10111101111 f
b111 g
b10111101111 h
1j
1w
1}
1)"
0,"
1-"
11"
15"
1L"
#350000000
0!
0%
0R
0V
0Z
0^
0e
0j
0w
0}
0)"
0-"
01"
05"
0L"
#375000000
1!
1%
1*
b0100000000000000 F
1R
1U
1V
1Z
1^
b0100000000000000 d
1e
b10111101000 f
b000 g
b10111101000 h
1j
1w
1}
1)"
1-"
11"
15"
1L"
#400000000
0!
0%
0R
0V
0Z
0^
0e
0j
0w
0}
0)"
0-"
01"
05"
0L"
#425000000
1!
1%
1)
0*
1,
b000000010 >
b101111100000 B
b0010100000000000 F
1Q
1R
0U
1V
b000000010 X
1Z
1]
1^
b101111100000 _
b000000010 a
b101111100000 b
b0010100000000000 d
1e
b10111101001 f
b001 g
b10111101001 h
1j
b111100000 k
1w
1}
1)"
1-"
11"
15"
1L"
#450000000
0!
0%
0R
0V
0Z
0^
0e
0j
0w
0}
0)"
0-"
01"
05"
0L"
#475000000
1!
1%
0)
1+
0,
b000000011 =
b101111100000 @
b0000010000000000 F
b0000101111100000 O
0Q
1R
b111100000 S
b000000011 T
1V
b000000011 W
1Y
1Z
b101111100000 [
0]
1^
b101111100000 `
b0000010000000000 d
1e
b10111101010 f
b010 g
b10111101010 h
1j
1w
1}
b0000101111100000 #"
1)"
1-"
11"
15"
1L"
#500000000
0!
0%
0R
0V
0Z
0^
0e
0j
0w
0}
0)"
0-"
01"
05"
0L"
#525000000
1!
1%
1*
0+
b10 8
b101111100000 A
b0100000000000000 F
1R
1U
1V
0Y
1Z
b101111100000 \
1^
b101111100000 c
b0100000000000000 d
1e
b10111110011 f
b011 g
b10111110011 h
1j
1w
1}
1)"
1-"
11"
15"
b10 ="
1L"
#550000000
0!
0%
0R
0V
0Z
0^
0e
0j
0w
0}
0)"
0-"
01"
05"
0L"
#575000000
1!
1%
1)
0*
1,
b000000011 >
b000000100000 B
b0010100000000000 F
1Q
1R
0U
1V
b000000011 X
1Z
1]
1^
b000000100000 _
b000000011 a
b000000100000 b
b0010100000000000 d
1e
b10111110100 f
b100 g
b10111110100 h
1j
b000100000 k
1w
1}
1)"
1-"
11"
15"
1L"
#600000000
0!
0%
0R
0V
0Z
0^
0e
0j
0w
0}
0)"
0-"
01"
05"
0L"
#625000000
1!
1%
0)
0,
1.
b01 7
b000000100 =
b000000100000 @
b0000000100010000 F
b0000000000100000 H
b0000000000100000 O
0Q
1R
b000100000 S
b000000100 T
1V
b000000100 W
1Z
b000000100000 [
0]
1^
b000000100000 `
b0000000100010000 d
1e
b10111110101 f
b101 g
b10111110101 h
1j
1w
1}
b0000000000100000 #"
b0000000000100000 &"
b01 '"
1("
1)"
b0000000000100000 *"
1-"
11"
15"
1L"
#650000000
0!
0%
0R
0V
0Z
0^
0e
0j
0w
0}
0)"
0-"
01"
05"
0L"
#675000000
1!
1%
0.
13
b00 7
b000 :
b0000000000000100 F
b0000000000100000 G
b0000000000000010 H
b0000000000100000 I
b0000000000100000 N
1R
1V
1Z
1^
b0000000000000100 d
1e
b10111110110 f
b110 g
b10111110110 h
1j
1w
1}
b0000000000100000 $"
b0000000000000010 &"
b00 '"
0("
1)"
b0000000000000010 *"
b0000000000100000 +"
1-"
b0000000000100000 ."
10"
11"
b0000000000100000 2"
15"
b0000000000100000 6"
b0000000000100000 8"
b0000000000100000 >"
b0000000000100000 B"
b0000000000100000 E"
b0000000000100000 F"
b000 H"
b00000000000000000000000000100000 I"
b000 J"
1L"
b000 M"
#700000000
0!
0%
0R
0V
0Z
0^
0e
0j
0w
0}
0)"
0-"
01"
05"
0L"
#725000000
1!
1%
03
b0000000000000000 F
b0000000000100000 K
b0000000000100000 M
1R
1V
1Z
1^
b0000000000000000 d
1e
b10111110111 f
b111 g
b10111110111 h
1j
1w
1}
1)"
1-"
00"
11"
b0000000000100000 3"
15"
b0000000000100000 :"
b0000000000100000 <"
b0000000000100000 @"
b0000000000100000 D"
1L"
#750000000
0!
0%
0R
0V
0Z
0^
0e
0j
0w
0}
0)"
0-"
01"
05"
0L"
#775000000
1!
1%
1*
b0100000000000000 F
1R
1U
1V
1Z
1^
b0100000000000000 d
1e
b10111110000 f
b000 g
b10111110000 h
1j
1w
1}
1)"
1-"
11"
15"
1L"
#800000000
0!
0%
0R
0V
0Z
0^
0e
0j
0w
0}
0)"
0-"
01"
05"
0L"
#825000000
1!
1%
1)
0*
1,
b000000100 >
b000111010000 B
b0010100000000000 F
1Q
1R
0U
1V
b000000100 X
1Z
1]
1^
b000111010000 _
b000000100 a
b000111010000 b
b0010100000000000 d
1e
b10111110001 f
b001 g
b10111110001 h
1j
b111010000 k
1w
1}
1)"
1-"
11"
15"
1L"
#850000000
0!
0%
0R
0V
0Z
0^
0e
0j
0w
0}
0)"
0-"
01"
05"
0L"
#875000000
1!
1%
0)
1+
0,
b000000101 =
b000111010000 @
b0000010000000000 F
b0000000111010000 O
0Q
1R
b111010000 S
b000000101 T
1V
b000000101 W
1Y
1Z
b000111010000 [
0]
1^
b000111010000 `
b0000010000000000 d
1e
b10111110010 f
b010 g
b10111110010 h
1j
1w
1}
b0000000111010000 #"
1)"
1-"
11"
15"
1L"
#900000000
0!
0%
0R
0V
0Z
0^
0e
0j
0w
0}
0)"
0-"
01"
05"
0L"
#925000000
1!
1%
1*
0+
b01 8
b0001 <
b000111010000 A
b0100000000000000 F
b0000000000100000 G
b0000000000000000 M
1R
1U
1V
0Y
1Z
b000111010000 \
1^
b000111010000 c
b0100000000000000 d
1e
b11101011 f
b011 g
b00011101011 h
1j
1w
1}
b0000000000100000 $"
1)"
1-"
b0000000000100000 ."
11"
b0000000000100000 2"
15"
b0000000000100000 6"
b0000000000000000 <"
b01 ="
b0000000000000000 D"
b0000000000100000 F"
b0001 G"
b00000000000000000000000000100000 I"
1L"
#950000000
0!
0%
0R
0V
0Z
0^
0e
0j
0w
0}
0)"
0-"
01"
05"
0L"
#975000000
1!
1%
1)
0*
1,
b000000101 >
b000000010000 B
b0010100000000000 F
1Q
1R
0U
1V
b000000101 X
1Z
1]
1^
b000000010000 _
b000000101 a
b000000010000 b
b0010100000000000 d
1e
b11101100 f
b100 g
b00011101100 h
1j
b000010000 k
1w
1}
1)"
1-"
11"
15"
1L"
#1000000000
0!
0%
0R
0V
0Z
0^
0e
0j
0w
0}
0)"
0-"
01"
05"
0L"
#1025000000
1!
1%
0)
0,
1.
b01 7
b000000110 =
b000000010000 @
b0000000100010000 F
b0000000000010000 H
b0000000000010000 O
0Q
1R
b000010000 S
b000000110 T
1V
b000000110 W
1Z
b000000010000 [
0]
1^
b000000010000 `
b0000000100010000 d
1e
b11101101 f
b101 g
b00011101101 h
1j
1w
1}
b0000000000010000 #"
b0000000000010000 &"
b01 '"
1("
1)"
b0000000000010000 *"
1-"
11"
15"
1L"
#1050000000
0!
0%
0R
0V
0Z
0^
0e
0j
0w
0}
0)"
0-"
01"
05"
0L"
#1075000000
1!
1%
0.
12
15
b00 7
b0000000000001001 F
b0000000000010000 G
b0000000000000010 H
b0000000000010000 I
b0000000000010000 N
1R
1V
1Z
1^
b0000000000001001 d
1e
b11101110 f
b110 g
b00011101110 h
1j
1w
1}
b0000000000010000 $"
b0000000000000010 &"
b00 '"
0("
1)"
b0000000000000010 *"
b0000000000010000 +"
1,"
1-"
b0000000000010000 ."
11"
b0000000000010000 2"
15"
b0000000000010000 6"
b0000000000010000 8"
b0000000000010000 >"
b0000000000010000 B"
b0000000000010000 E"
b0000000000010000 F"
b00000000000000000000000000010000 I"
1K"
1L"
#1100000000
0!
0%
0R
0V
0Z
0^
0e
0j
0w
0}
0)"
0-"
01"
05"
0L"
#1125000000
1!
1%
02
05
b0000000000000000 F
b0000000000100000 G
b0000000000010000 J
b0000000000010000 M
1R
1V
1Z
1^
b0000000000000000 d
1e
b11101111 f
b111 g
b00011101111 h
1j
1w
1}
b0000000000100000 $"
1)"
0,"
1-"
b0000000000100000 ."
b0000000000010000 /"
11"
b0000000000100000 2"
15"
b0000000000100000 6"
b0000000000010000 9"
b0000000000010000 <"
b0000000000010000 ?"
b0000000000010000 D"
b0000000000100000 F"
b00000000000000000000000000100000 I"
0K"
1L"
#1150000000
0!
0%
0R
0V
0Z
0^
0e
0j
0w
0}
0)"
0-"
01"
05"
0L"
#1175000000
1!
1%
1*
b0100000000000000 F
1R
1U
1V
1Z
1^
b0100000000000000 d
1e
b11101000 f
b000 g
b00011101000 h
1j
1w
1}
1)"
1-"
11"
15"
1L"
#1200000000
0!
0%
0R
0V
0Z
0^
0e
0j
0w
0}
0)"
0-"
01"
05"
0L"
#1225000000
1!
1%
1)
0*
1,
b000000110 >
b101001011000 B
b0010100000000000 F
1Q
1R
0U
1V
b000000110 X
1Z
1]
1^
b101001011000 _
b000000110 a
b101001011000 b
b0010100000000000 d
1e
b11101001 f
b001 g
b00011101001 h
1j
b001011000 k
1w
1}
1)"
1-"
11"
15"
1L"
#1250000000
0!
0%
0R
0V
0Z
0^
0e
0j
0w
0}
0)"
0-"
01"
05"
0L"
#1275000000
1!
1%
0)
1+
0,
b000000111 =
b101001011000 @
b0000010000000000 F
b0000101001011000 O
0Q
1R
b001011000 S
b000000111 T
1V
b000000111 W
1Y
1Z
b101001011000 [
0]
1^
b101001011000 `
b0000010000000000 d
1e
b11101010 f
b010 g
b00011101010 h
1j
1w
1}
b0000101001011000 #"
1)"
1-"
11"
15"
1L"
#1300000000
0!
0%
0R
0V
0Z
0^
0e
0j
0w
0}
0)"
0-"
01"
05"
0L"
#1325000000
1!
1%
0+
15
b10 9
b011 :
b1010 <
b101001011000 A
b0000000000000001 F
b1111111111110000 G
b0000000000100000 N
b1000101001011000 O
1R
1V
0Y
1Z
b101001011000 \
1^
b101001011000 c
b0000000000000001 d
1e
b10100101011 f
b011 g
b10100101011 h
1j
1w
1}
b1000101001011000 #"
b1111111111110000 $"
1)"
1-"
b1111111111110000 ."
11"
b1111111111110000 2"
15"
b1111111111110000 6"
b0000000000100000 B"
b10 C"
b0000000000100000 E"
b1111111111110000 F"
b1010 G"
b011 H"
b11111111111111111111111111110000 I"
b011 J"
1K"
1L"
b011 M"
#1350000000
0!
0%
0R
0V
0Z
0^
0e
0j
0w
0}
0)"
0-"
01"
05"
0L"
#1375000000
1!
1%
05
b011 ;
b0000000000000000 F
1R
1V
1Z
1^
b0000000000000000 d
1e
b10100101100 f
b100 g
b10100101100 h
1j
1w
1}
1)"
1-"
11"
15"
0K"
1L"
b011 N"
#1400000000
0!
0%
0R
0V
0Z
0^
0e
0j
0w
0}
0)"
0-"
01"
05"
0L"
#1425000000
1!
1%
1R
1V
1Z
1^
1e
b10100101101 f
b101 g
b10100101101 h
1j
1w
1}
1)"
1-"
11"
15"
1L"
#1450000000
0!
0%
0R
0V
0Z
0^
0e
0j
0w
0}
0)"
0-"
01"
05"
0L"
#1475000000
1!
1%
1R
1V
1Z
1^
1e
b10100101110 f
b110 g
b10100101110 h
1j
1w
1}
1)"
1-"
11"
15"
1L"
#1500000000
0!
0%
0R
0V
0Z
0^
0e
0j
0w
0}
0)"
0-"
01"
05"
0L"
#1525000000
1!
1%
1R
1V
1Z
1^
1e
b10100101111 f
b111 g
b10100101111 h
1j
1w
1}
1)"
1-"
11"
15"
1L"
#1550000000
0!
0%
0R
0V
0Z
0^
0e
0j
0w
0}
0)"
0-"
01"
05"
0L"
#1575000000
1!
1%
1*
b0100000000000000 F
1R
1U
1V
1Z
1^
b0100000000000000 d
1e
b10100101000 f
b000 g
b10100101000 h
1j
1w
1}
1)"
1-"
11"
15"
1L"
#1600000000
0!
0%
0R
0V
0Z
0^
0e
0j
0w
0}
0)"
0-"
01"
05"
0L"
#1625000000
1!
1%
1)
0*
1,
b000000111 >
b111010000000 B
b0010100000000000 F
1Q
1R
0U
1V
b000000111 X
1Z
1]
1^
b111010000000 _
b000000111 a
b111010000000 b
b0010100000000000 d
1e
b10100101001 f
b001 g
b10100101001 h
1j
b010000000 k
1w
1}
1)"
1-"
11"
15"
1L"
#1650000000
0!
0%
0R
0V
0Z
0^
0e
0j
0w
0}
0)"
0-"
01"
05"
0L"
#1675000000
1!
1%
0)
1+
0,
b000001000 =
b111010000000 @
b0000010000000000 F
b1000111010000000 O
0Q
1R
b010000000 S
b000001000 T
1V
b000001000 W
1Y
1Z
b111010000000 [
0]
1^
b111010000000 `
b0000010000000000 d
1e
b10100101010 f
b010 g
b10100101010 h
1j
1w
1}
b1000111010000000 #"
1)"
1-"
11"
15"
1L"
#1700000000
0!
0%
0R
0V
0Z
0^
0e
0j
0w
0}
0)"
0-"
01"
05"
0L"
#1725000000
1!
1%
1*
0+
b00 8
b00 9
b1110 <
b111010000000 A
b0100000000000000 F
b0000000000010000 N
b0000111010000000 O
1R
1U
1V
0Y
1Z
b111010000000 \
1^
b111010000000 c
b0100000000000000 d
1e
b11101000011 f
b011 g
b11101000011 h
1j
1w
1}
b0000111010000000 #"
1)"
1-"
11"
15"
b00 ="
b0000000000010000 B"
b00 C"
b0000000000010000 E"
b1110 G"
1L"
#1750000000
0!
0%
0R
0V
0Z
0^
0e
0j
0w
0}
0)"
0-"
01"
05"
0L"
#1775000000
1!
1%
1)
0*
1,
b000001000 >
b000000010001 B
b0010100000000000 F
1Q
1R
0U
1V
b000001000 X
1Z
1]
1^
b000000010001 _
b000001000 a
b000000010001 b
b0010100000000000 d
1e
b11101000100 f
b100 g
b11101000100 h
1j
b000010001 k
1w
1}
1)"
1-"
11"
15"
1L"
#1800000000
0!
0%
0R
0V
0Z
0^
0e
0j
0w
0}
0)"
0-"
01"
05"
0L"
#1825000000
1!
1%
0)
0,
b000001001 =
b000000010001 @
b0001000000000000 F
b0000000000010001 O
0Q
1R
b000010001 S
b000001001 T
1V
b000001001 W
1Z
b000000010001 [
0]
1^
b000000010001 `
b0001000000000000 d
1e
b11101000101 f
b101 g
b11101000101 h
1j
1w
1}
b0000000000010001 #"
1)"
1-"
11"
15"
1L"
#1850000000
0!
0%
0R
0V
0Z
0^
0e
0j
0w
0}
0)"
0-"
01"
05"
0L"
#1875000000
1!
1%
b0000000000000000 F
1R
1V
1Z
1^
b0000000000000000 d
1e
b11101000110 f
b110 g
b11101000110 h
1j
1w
1}
1)"
1-"
11"
15"
1L"
#1900000000
0!
0%
0R
0V
0Z
0^
0e
0j
0w
0}
0)"
0-"
01"
05"
0L"
#1925000000
1!
1%
1R
1V
1Z
1^
1e
b11101000111 f
b111 g
b11101000111 h
1j
1w
1}
1)"
1-"
11"
15"
1L"
#1950000000
0!
0%
0R
0V
0Z
0^
0e
0j
0w
0}
0)"
0-"
01"
05"
0L"
#1975000000
1!
1%
1*
b0100000000000000 F
1R
1U
1V
1Z
1^
b0100000000000000 d
1e
b11101000000 f
b000 g
b11101000000 h
1j
1w
1}
1)"
1-"
11"
15"
1L"
#2000000000
0!
0%
0R
0V
0Z
0^
0e
0j
0w
0}
0)"
0-"
01"
05"
0L"
#2025000000
1!
1%
1)
0*
1,
b000001001 >
b101001011000 B
b0010100000000000 F
1Q
1R
0U
1V
b000001001 X
1Z
1]
1^
b101001011000 _
b000001001 a
b101001011000 b
b0010100000000000 d
1e
b11101000001 f
b001 g
b11101000001 h
1j
b001011000 k
1w
1}
1)"
1-"
11"
15"
1L"
#2050000000
0!
0%
0R
0V
0Z
0^
0e
0j
0w
0}
0)"
0-"
01"
05"
0L"
#2075000000
1!
1%
0)
1+
0,
b000001010 =
b101001011000 @
b0000010000000000 F
b0000101001011000 O
0Q
1R
b001011000 S
b000001010 T
1V
b000001010 W
1Y
1Z
b101001011000 [
0]
1^
b101001011000 `
b0000010000000000 d
1e
b11101000010 f
b010 g
b11101000010 h
1j
1w
1}
b0000101001011000 #"
1)"
1-"
11"
15"
1L"
#2100000000
0!
0%
0R
0V
0Z
0^
0e
0j
0w
0}
0)"
0-"
01"
05"
0L"
#2125000000
1!
1%
0+
15
b01 8
b10 9
b011 :
b1010 <
b101001011000 A
b0000000000000001 F
b1111111111110000 G
b0000000000100000 N
b1000101001011000 O
1R
1V
0Y
1Z
b101001011000 \
1^
b101001011000 c
b0000000000000001 d
1e
b10100101011 f
b011 g
b10100101011 h
1j
1w
1}
b1000101001011000 #"
b1111111111110000 $"
1)"
1-"
b1111111111110000 ."
11"
b1111111111110000 2"
15"
b1111111111110000 6"
b01 ="
b0000000000100000 B"
b10 C"
b0000000000100000 E"
b1111111111110000 F"
b1010 G"
b011 H"
b11111111111111111111111111110000 I"
b011 J"
1K"
1L"
b011 M"
#2150000000
0!
0%
0R
0V
0Z
0^
0e
0j
0w
0}
0)"
0-"
01"
05"
0L"
#2175000000
1!
1%
05
b0000000000000000 F
1R
1V
1Z
1^
b0000000000000000 d
1e
b10100101100 f
b100 g
b10100101100 h
1j
1w
1}
1)"
1-"
11"
15"
0K"
1L"
#2200000000
0!
0%
0R
0V
0Z
0^
0e
0j
0w
0}
0)"
0-"
01"
05"
0L"
#2225000000
1!
1%
1R
1V
1Z
1^
1e
b10100101101 f
b101 g
b10100101101 h
1j
1w
1}
1)"
1-"
11"
15"
1L"
#2250000000
0!
0%
0R
0V
0Z
0^
0e
0j
0w
0}
0)"
0-"
01"
05"
0L"
#2275000000
1!
1%
1R
1V
1Z
1^
1e
b10100101110 f
b110 g
b10100101110 h
1j
1w
1}
1)"
1-"
11"
15"
1L"
#2300000000
0!
0%
0R
0V
0Z
0^
0e
0j
0w
0}
0)"
0-"
01"
05"
0L"
#2325000000
1!
1%
1R
1V
1Z
1^
1e
b10100101111 f
b111 g
b10100101111 h
1j
1w
1}
1)"
1-"
11"
15"
1L"
#2350000000
0!
0%
0R
0V
0Z
0^
0e
0j
0w
0}
0)"
0-"
01"
05"
0L"
#2375000000
1!
1%
1*
b0100000000000000 F
1R
1U
1V
1Z
1^
b0100000000000000 d
1e
b10100101000 f
b000 g
b10100101000 h
1j
1w
1}
1)"
1-"
11"
15"
1L"
#2400000000
0!
0%
0R
0V
0Z
0^
0e
0j
0w
0}
0)"
0-"
01"
05"
0L"
#2425000000
1!
1%
1)
0*
1,
b000001010 >
b111001000000 B
b0010100000000000 F
1Q
1R
0U
1V
b000001010 X
1Z
1]
1^
b111001000000 _
b000001010 a
b111001000000 b
b0010100000000000 d
1e
b10100101001 f
b001 g
b10100101001 h
1j
b001000000 k
1w
1}
1)"
1-"
11"
15"
1L"
#2450000000
0!
0%
0R
0V
0Z
0^
0e
0j
0w
0}
0)"
0-"
01"
05"
0L"
#2475000000
1!
1%
0)
1+
0,
b000001011 =
b111001000000 @
b0000010000000000 F
b1000111001000000 O
0Q
1R
b001000000 S
b000001011 T
1V
b000001011 W
1Y
1Z
b111001000000 [
0]
1^
b111001000000 `
b0000010000000000 d
1e
b10100101010 f
b010 g
b10100101010 h
1j
1w
1}
b1000111001000000 #"
1)"
1-"
11"
15"
1L"
#2500000000
0!
0%
0R
0V
0Z
0^
0e
0j
0w
0}
0)"
0-"
01"
05"
0L"
#2525000000
1!
1%
1*
0+
b00 8
b00 9
b1110 <
b111001000000 A
b0100000000000000 F
b0000000000010000 N
b0000111001000000 O
1R
1U
1V
0Y
1Z
b111001000000 \
1^
b111001000000 c
b0100000000000000 d
1e
b11100100011 f
b011 g
b11100100011 h
1j
1w
1}
b0000111001000000 #"
1)"
1-"
11"
15"
b00 ="
b0000000000010000 B"
b00 C"
b0000000000010000 E"
b1110 G"
1L"
