Procesador/UControl/UControl.vcd
$date
  Thu Jun 04 02:45:05 2020
$end
$version
  GHDL v0
$end
$timescale
  1 fs
$end
$var reg 12 ! ir[11:0] $end
$var reg 16 " sencontrol[15:0] $end
$var reg 1 # clk $end
$var reg 1 $ clock_on $end
$scope module uut $end
$var reg 12 % ir[11:0] $end
$var reg 16 & sencontrol[15:0] $end
$var reg 1 ' clk $end
$var integer 32 ( lindir $end
$var reg 3 ) contador[2:0] $end
$var reg 11 * direccion[10:0] $end
$upscope $end
$enddefinitions $end
#0
b000000000000 !
b0100000000000000 "
0#
1$
b000000000000 %
b0100000000000000 &
0'
b0 (
b000 )
b00000000000 *
#25000000
b0010100000000000 "
1#
b0010100000000000 &
1'
b1 (
b001 )
b00000000001 *
#50000000
0#
0'
#75000000
b0000010000000000 "
1#
b0000010000000000 &
1'
b10 (
b010 )
b00000000010 *
#100000000
0#
0'
#125000000
b0000000000000000 "
1#
b0000000000000000 &
1'
b11 (
b011 )
b00000000011 *
#150000000
0#
0'
#175000000
1#
1'
b100 (
b100 )
b00000000100 *
#200000000
0#
0'
#225000000
1#
1'
b101 (
b101 )
b00000000101 *
#250000000
0#
0'
#275000000
1#
1'
b110 (
b110 )
b00000000110 *
#300000000
0#
0$
0'
#325000000
1#
1'
b111 (
b111 )
b00000000111 *
